<?xml version="1.0" encoding="utf-8"?>
<!-- Generator: Adobe Illustrator 20.1.0, SVG Export Plug-In . SVG Version: 6.00 Build 0)  -->
<svg version="1.1" id="Слой_1" xmlns="http://www.w3.org/2000/svg" xmlns:xlink="http://www.w3.org/1999/xlink" x="0px" y="0px"
	 viewBox="0 0 535.9 177.5" style="enable-background:new 0 0 535.9 177.5;" xml:space="preserve">
<style type="text/css">
	.st0{fill:#E01F26;}
	.st1{fill:#A91F23;}
	.st2{fill:#FFFFFF;}
	.st3{fill:#FFFFFF;}
</style>
<path class="st0" d="M156.6,6.1H24.4c-9,0-16.3,7.3-16.3,16.3v132.2c0,9,7.3,16.3,16.3,16.3c0,0,0,0,0,0h132.2
	c9,0,16.3-7.3,16.3-16.3V22.5C172.9,13.5,165.6,6.1,156.6,6.1z M116.7,120.6c-1.3,4.5-4.1,8.4-7.8,11.2c-5.7,4.5-12.8,6.8-21.1,6.8
	c-10.8,0-20.3-2.8-28.5-8.4c-0.2-0.1-0.4-0.3-0.5-0.4l-0.1-0.1c-0.4-0.4-0.6-0.8-0.6-1.3c0-1.1,0.8-2,1.9-2c0,0,0,0,0,0
	c0.6,0,1.1,0.3,1.5,0.7c4.6,3.2,9.8,5.4,15.3,6.6c3.6,0.8,7.3,1.1,11,1.1c7.3,0,13.4-1.9,18.3-5.6c1.2-0.9,2.3-1.9,3.3-3.1
	c-5.1,2.5-10.7,3.8-16.4,3.7c-10.8,0-20.3-2.8-28.5-8.3l-0.2-0.2c-0.1-0.1-0.3-0.2-0.4-0.4c0,0-0.1-0.1-0.1-0.1
	c-0.3-0.3-0.4-0.7-0.5-1.1c0-1.1,0.8-2,1.8-2c0.6,0.1,1.1,0.3,1.5,0.7c7.3,5.1,16,7.7,26.3,7.7c7.3,0,13.3-1.9,18.2-5.6
	c0.6-0.5,1.2-0.9,1.8-1.5c0.3-1.4,0.5-2.9,0.4-4.3c0-10.8-6.4-16.4-17.5-19.3l-16.6-4.4c-11.6-3.2-19.2-10.5-19.2-21
	c0-1.9,0.2-3.9,0.8-5.8c0.9-3.3,2.7-6.2,5.1-8.6c1.2-4.2,3.7-8,7.2-10.6c5.3-4.1,12-6.1,19.8-6.1c10,0,18.8,2.4,26.4,7.3
	c0.2,0.1,0.5,0.3,0.7,0.5c0.4,0.3,0.7,0.8,0.7,1.3c0,1.1-0.9,2-2,2c-0.5-0.1-1-0.3-1.4-0.6c-6.7-4.4-14.9-6.6-24.4-6.6
	c-6.8,0-12.3,1.6-16.8,5c-1.2,0.9-2.3,1.9-3.3,3.1c4.7-2.2,9.8-3.3,14.9-3.2c10,0,18.8,2.4,26.4,7.3c0.9,0.6,1.4,1.2,1.4,1.9
	c0,1.1-0.9,2-2,2c-0.5-0.1-1-0.3-1.4-0.6c-6.7-4.4-14.9-6.6-24.4-6.6c-6.7,0-12.3,1.6-16.8,5c-0.4,0.3-0.8,0.7-1.2,1
	c-0.2,1.1-0.4,2.3-0.3,3.4c0,8.7,6.2,14.8,16,17.2l16.6,4.3c13.8,3.5,20.8,11.3,20.8,23.2C122.9,111.2,120.7,116.6,116.7,120.6z"/>
<path class="st1" d="M172.9,99.2v55.5c0,9-7.3,16.3-16.3,16.3h-56.4l-41.4-41.4l1.9-1.9l2.8,2.8l15.9,5.6l-2.6-2.6l-12.3-12.3
	l-0.2-0.2l-0.5-0.5l0,0l1.9-1.8l2.7,2.7l14.7,6.3l21.1-1.5l12.1-7.6l-3.3-14.5l-7.3-7.3l-18.1-5.6c0,0-16.4-6.3-20.4-8.9
	s-6.3-18.4-6.3-18.4l7.8-8.1c0,0,2.9-9.6,10.7-13s22.2-1.5,27.7,0c3.5,0.9,8.4,3.5,11.4,5.3l1.6-1.6L172.9,99.2z"/>
<path class="st1" d="M118.7,105.6c0,2.3-0.4,4.7-1.2,6.8c-0.8-10.8-7.7-17.9-20.7-21.2l-16.5-4.3c-9.9-2.5-16-8.5-16-17.2
	c0-2.3,0.4-4.5,1.3-6.6c1,9.4,8.2,15.9,19,18.8l16.6,4.4C112.3,89.2,118.7,94.8,118.7,105.6z"/>
<path class="st2" d="M102,82.3L85.5,78c-9.9-2.4-16-8.5-16-17.2c0-1.2,0.1-2.3,0.3-3.4c0.3-0.3,0.8-0.7,1.2-1c4.5-3.4,10.1-5,16.8-5
	c9.5,0,17.7,2.2,24.4,6.6c0.4,0.3,0.9,0.5,1.4,0.6c1.1,0,2-0.9,2-2c0-0.7-0.5-1.3-1.4-1.9c-7.6-4.9-16.4-7.3-26.4-7.3
	c-5.1-0.1-10.2,1-14.9,3.2c1-1.2,2.1-2.2,3.3-3.1c4.5-3.4,10.1-5,16.8-5c9.5,0,17.7,2.2,24.4,6.6c0.4,0.3,0.9,0.5,1.4,0.6
	c1.1,0,2-0.9,2-2c0-0.5-0.3-1-0.7-1.3c-0.2-0.2-0.4-0.4-0.7-0.5c-7.6-4.8-16.5-7.2-26.5-7.2c-7.8,0-14.4,2.1-19.8,6.1
	c-3.5,2.6-6.1,6.4-7.2,10.6c-2.4,2.3-4.2,5.3-5.1,8.6c-0.5,1.9-0.8,3.8-0.8,5.8c0,10.6,7.6,17.9,19.2,21l16.6,4.4
	c11.2,2.9,17.5,8.5,17.5,19.3c0,1.5-0.1,2.9-0.4,4.3c-0.6,0.5-1.1,1-1.8,1.5c-4.9,3.7-10.9,5.6-18.2,5.6c-10.2,0-19-2.6-26.3-7.7
	c-0.4-0.4-1-0.6-1.5-0.7c-1.1,0-1.9,0.9-1.8,2c0,0.4,0.2,0.8,0.5,1.1c0,0.1,0,0.1,0.1,0.1c0.1,0.1,0.2,0.3,0.4,0.4l0.2,0.2
	c8.1,5.6,17.7,8.3,28.5,8.3c5.7,0.1,11.3-1.1,16.4-3.6c-1,1.1-2.1,2.2-3.3,3.1c-4.9,3.7-11,5.6-18.3,5.6c-3.7,0-7.4-0.4-11-1.1
	c-5.5-1.1-10.7-3.4-15.3-6.6c-0.4-0.4-0.9-0.6-1.5-0.7c-1.1,0-1.9,0.9-1.9,2c0,0,0,0,0,0c0,0.5,0.2,1,0.6,1.3l0.1,0.1
	c0.1,0.2,0.3,0.3,0.5,0.4c8.1,5.6,17.6,8.4,28.5,8.4c8.4,0,15.5-2.2,21.1-6.8c3.7-2.8,6.5-6.7,7.8-11.2c3.9-4,6.1-9.4,6-15
	C122.8,93.6,115.8,85.8,102,82.3z M96.8,91.2l-16.5-4.3c-9.9-2.5-16-8.5-16-17.2c0-2.3,0.4-4.5,1.3-6.6c1,9.4,8.2,15.9,19,18.8
	l16.6,4.4c11.2,2.9,17.5,8.5,17.5,19.3c0,2.3-0.4,4.7-1.2,6.8C116.7,101.6,109.8,94.5,96.8,91.2L96.8,91.2z"/>
<g>
	<g>
		<path class="st3" d="M232.5,92c3.1,1.9,7.7,3.5,12.6,3.5c7.2,0,11.3-3.8,11.3-9.3c0-5.1-2.9-8-10.2-10.8
			c-8.9-3.1-14.3-7.7-14.3-15.4c0-8.5,7-14.7,17.5-14.7c5.6,0,9.6,1.3,12,2.7l-1.9,5.7c-1.8-1-5.4-2.6-10.3-2.6
			c-7.4,0-10.2,4.4-10.2,8.1c0,5.1,3.3,7.6,10.8,10.5c9.2,3.5,13.8,8,13.8,15.9c0,8.4-6.2,15.6-19,15.6c-5.2,0-10.9-1.5-13.8-3.5
			L232.5,92z"/>
		<path class="st3" d="M326.9,76.7c-0.4-7.6-0.9-16.7-0.8-23.4h-0.2c-1.9,6.4-4.1,13.1-6.8,20.6l-9.6,26.3h-5.3l-8.8-25.8
			c-2.6-7.6-4.7-14.6-6.3-21.1h-0.2c-0.2,6.8-0.6,15.9-1,24l-1.4,23.3h-6.7l3.8-54.3h8.9l9.3,26.2c2.3,6.7,4.1,12.6,5.5,18.3h0.2
			c1.4-5.5,3.3-11.4,5.7-18.3l9.7-26.2h8.9l3.4,54.3h-6.8L326.9,76.7z"/>
		<path class="st3" d="M360.9,46.3v54.3h-7V46.3H360.9z"/>
		<path class="st3" d="M392.7,100.6v-23l-17.1-31.2h8l7.6,15c2.1,4.1,3.7,7.4,5.4,11.2h0.2c1.5-3.5,3.4-7.1,5.5-11.2l7.8-15h8
			l-18.2,31.2v23.1H392.7z"/>
		<path class="st3" d="M434.5,83.5l-5.6,17.1h-7.2l18.4-54.3h8.5l18.5,54.3h-7.5l-5.8-17.1H434.5z M452.3,78L447,62.4
			c-1.2-3.5-2-6.8-2.8-9.9H444c-0.8,3.2-1.7,6.5-2.7,9.8L436,78H452.3z"/>
		<path class="st3" d="M483,100.6V46.3h7.6l17.4,27.4c4,6.4,7.2,12.1,9.7,17.6l0.2-0.1c-0.6-7.2-0.8-13.8-0.8-22.3V46.3h6.6v54.3
			h-7.1L499.5,73c-3.8-6-7.4-12.2-10.1-18.1l-0.2,0.1c0.4,6.8,0.6,13.4,0.6,22.4v23.2H483z"/>
	</g>
</g>
<g>
	<g>
		<path class="st3" d="M244.3,130c-0.8,0.4-2.4,0.8-4.4,0.8c-4.7,0-8.3-3-8.3-8.5c0-5.2,3.5-8.8,8.7-8.8c2.1,0,3.4,0.4,4,0.7
			l-0.5,1.8c-0.8-0.4-2-0.7-3.4-0.7c-3.9,0-6.5,2.5-6.5,6.9c0,4.1,2.4,6.7,6.4,6.7c1.3,0,2.7-0.3,3.5-0.7L244.3,130z"/>
		<path class="st3" d="M262.9,122c0,5.8-3.5,8.8-7.8,8.8c-4.4,0-7.5-3.4-7.5-8.5c0-5.3,3.3-8.8,7.8-8.8
			C260,113.5,262.9,117,262.9,122z M249.9,122.2c0,3.6,1.9,6.8,5.3,6.8c3.4,0,5.4-3.2,5.4-6.9c0-3.3-1.7-6.8-5.3-6.8
			C251.7,115.3,249.9,118.6,249.9,122.2z"/>
		<path class="st3" d="M267.9,130.5v-16.7h2.4l5.4,8.5c1.2,2,2.2,3.7,3,5.4l0,0c-0.2-2.2-0.2-4.3-0.2-6.9v-7h2v16.7h-2.2l-5.3-8.5
			c-1.2-1.9-2.3-3.8-3.1-5.6l-0.1,0c0.1,2.1,0.2,4.1,0.2,6.9v7.1H267.9z"/>
		<path class="st3" d="M286.4,113.8h9v1.8h-6.8v5.6h6.3v1.8h-6.3v7.6h-2.2V113.8z"/>
		<path class="st3" d="M309.3,122.7h-6.5v6h7.2v1.8h-9.4v-16.7h9v1.8h-6.9v5.3h6.5V122.7z"/>
		<path class="st3" d="M326.7,130c-0.8,0.4-2.4,0.8-4.4,0.8c-4.7,0-8.3-3-8.3-8.5c0-5.2,3.5-8.8,8.7-8.8c2.1,0,3.4,0.4,4,0.7
			l-0.5,1.8c-0.8-0.4-2-0.7-3.4-0.7c-3.9,0-6.5,2.5-6.5,6.9c0,4.1,2.4,6.7,6.4,6.7c1.3,0,2.7-0.3,3.5-0.7L326.7,130z"/>
		<path class="st3" d="M335.4,115.6h-5.1v-1.8h12.4v1.8h-5.1v14.9h-2.2V115.6z"/>
		<path class="st3" d="M348.9,113.8v16.7h-2.2v-16.7H348.9z"/>
		<path class="st3" d="M369.1,122c0,5.8-3.5,8.8-7.8,8.8c-4.4,0-7.5-3.4-7.5-8.5c0-5.3,3.3-8.8,7.8-8.8
			C366.1,113.5,369.1,117,369.1,122z M356.1,122.2c0,3.6,1.9,6.8,5.3,6.8c3.4,0,5.4-3.2,5.4-6.9c0-3.3-1.7-6.8-5.3-6.8
			C357.9,115.3,356.1,118.6,356.1,122.2z"/>
		<path class="st3" d="M374,130.5v-16.7h2.4l5.4,8.5c1.2,2,2.2,3.7,3,5.4l0,0c-0.2-2.2-0.2-4.3-0.2-6.9v-7h2v16.7h-2.2l-5.3-8.5
			c-1.2-1.9-2.3-3.8-3.1-5.6l-0.1,0c0.1,2.1,0.2,4.1,0.2,6.9v7.1H374z"/>
		<path class="st3" d="M401.2,122.7h-6.5v6h7.2v1.8h-9.4v-16.7h9v1.8h-6.9v5.3h6.5V122.7z"/>
		<path class="st3" d="M406.9,114c1.1-0.2,2.7-0.3,4.1-0.3c2.3,0,3.8,0.4,4.8,1.4c0.8,0.7,1.3,1.9,1.3,3.2c0,2.2-1.4,3.7-3.2,4.3
			v0.1c1.3,0.4,2.1,1.6,2.5,3.4c0.5,2.3,0.9,3.9,1.3,4.6h-2.2c-0.3-0.5-0.6-1.9-1.1-4c-0.5-2.3-1.4-3.2-3.4-3.3h-2v7.2h-2.2V114z
			 M409.1,121.6h2.2c2.3,0,3.8-1.3,3.8-3.2c0-2.2-1.6-3.1-3.8-3.1c-1,0-1.8,0.1-2.1,0.2V121.6z"/>
		<path class="st3" d="M425.8,130.5v-7.1l-5.3-9.6h2.5l2.4,4.6c0.6,1.3,1.1,2.3,1.7,3.4h0.1c0.5-1.1,1-2.2,1.7-3.4l2.4-4.6h2.5
			l-5.6,9.6v7.1H425.8z"/>
		<path class="st3" d="M447.3,113.8v7h8.1v-7h2.2v16.7h-2.2v-7.8h-8.1v7.8h-2.2v-16.7H447.3z"/>
		<path class="st3" d="M477.8,122c0,5.8-3.5,8.8-7.8,8.8c-4.4,0-7.5-3.4-7.5-8.5c0-5.3,3.3-8.8,7.8-8.8
			C474.8,113.5,477.8,117,477.8,122z M464.8,122.2c0,3.6,1.9,6.8,5.3,6.8c3.4,0,5.4-3.2,5.4-6.9c0-3.3-1.7-6.8-5.3-6.8
			C466.6,115.3,464.8,118.6,464.8,122.2z"/>
		<path class="st3" d="M484.9,113.8v9.9c0,3.7,1.7,5.3,3.9,5.3c2.5,0,4.1-1.6,4.1-5.3v-9.9h2.2v9.8c0,5.1-2.7,7.2-6.3,7.2
			c-3.4,0-6-2-6-7.1v-9.8H484.9z"/>
		<path class="st3" d="M500.6,127.9c1,0.6,2.4,1.1,3.9,1.1c2.2,0,3.5-1.2,3.5-2.9c0-1.6-0.9-2.5-3.2-3.3c-2.7-1-4.4-2.4-4.4-4.7
			c0-2.6,2.2-4.5,5.4-4.5c1.7,0,3,0.4,3.7,0.8l-0.6,1.8c-0.5-0.3-1.7-0.8-3.2-0.8c-2.3,0-3.1,1.4-3.1,2.5c0,1.6,1,2.3,3.3,3.2
			c2.8,1.1,4.3,2.5,4.3,4.9c0,2.6-1.9,4.8-5.9,4.8c-1.6,0-3.4-0.5-4.3-1.1L500.6,127.9z"/>
		<path class="st3" d="M524,122.7h-6.5v6h7.2v1.8h-9.4v-16.7h9v1.8h-6.9v5.3h6.5V122.7z"/>
	</g>
</g>
</svg>
