<?xml version="1.0" encoding="utf-8"?>
<!-- Generator: Adobe Illustrator 20.1.0, SVG Export Plug-In . SVG Version: 6.00 Build 0)  -->
<svg version="1.1" id="Слой_1" xmlns="http://www.w3.org/2000/svg" xmlns:xlink="http://www.w3.org/1999/xlink" x="0px" y="0px"
	 viewBox="0 0 68.8 46.4" style="enable-background:new 0 0 68.8 46.4;" xml:space="preserve">
<style type="text/css">
	.st0{stroke:#000000;stroke-miterlimit:10;}
</style>
<path class="st0" d="M30.1,12.3l-7.4-4.3c-2.4-1.4-5.5-0.6-7,1.9L2.5,32.7c-1.4,2.4-0.6,5.6,1.9,7l7.4,4.3c0.8,0.5,1.6,0.7,2.5,0.7
	c0.4,0,0.9-0.1,1.3-0.2c1.3-0.3,2.4-1.2,3.1-2.4L32,19.3C33.4,16.9,32.6,13.8,30.1,12.3C30.1,12.4,30.1,12.3,30.1,12.3z M15.4,43.3
	c-1,0.3-2.1,0.1-3-0.4l-2-1.1c0.2-0.4,0.4-0.8,0.7-1.2c0.3-0.5,0.7-1.1,1.1-1.5c0.5-0.5,0.9-1.1,1.2-1.7c0.4-0.6,0.6-1.2,0.9-1.9
	c0.4-1.2,1-2.3,1.8-3.2c0.5-0.5,0.9-1.1,1.2-1.7c0.4-0.6,0.6-1.2,0.9-1.9c0.4-1.2,1.1-2.3,1.9-3.2c0.9-1.1,1.6-2.3,2.1-3.6
	c0.4-1.2,1-2.3,1.9-3.2c0.9-1.1,1.6-2.3,2.1-3.6c0.2-0.6,0.5-1.2,0.8-1.7c0.2-0.4,0.5-0.8,0.8-1.1l2,1.1c1.9,1.1,2.5,3.5,1.4,5.3
	L17.7,41.5C17.2,42.4,16.4,43.1,15.4,43.3z M19.1,8.7c1-0.3,2.1-0.1,3,0.4l2,1.1c-0.2,0.4-0.4,0.8-0.6,1.2c-0.3,0.5-0.7,1.1-1.1,1.5
	c-0.9,1.1-1.6,2.3-2.1,3.6c-0.2,0.6-0.5,1.2-0.8,1.7c-0.3,0.5-0.7,1.1-1.1,1.5c-0.9,1.1-1.6,2.3-2.1,3.6c-0.2,0.6-0.5,1.2-0.8,1.7
	c-0.3,0.5-0.7,1.1-1.1,1.5c-0.9,1.1-1.6,2.3-2.1,3.6c-0.2,0.6-0.5,1.2-0.8,1.7c-0.3,0.5-0.7,1.1-1.1,1.5C9.7,34.5,9,35.7,8.5,37
	c-0.2,0.6-0.5,1.2-0.8,1.7c-0.2,0.4-0.5,0.8-0.8,1.1l-2-1.2c-1.9-1.1-2.5-3.5-1.4-5.3l13.2-22.8C17.2,9.6,18.1,9,19.1,8.7L19.1,8.7z
	 M8.6,39.2c0.4-0.6,0.6-1.2,0.9-1.9c0.4-1.2,1.1-2.3,1.9-3.2c0.5-0.5,0.9-1.1,1.2-1.7c0.4-0.6,0.6-1.2,0.9-1.9
	c0.4-1.2,1.1-2.3,1.9-3.2c0.5-0.5,0.9-1.1,1.2-1.7c0.4-0.6,0.6-1.2,0.9-1.9c0.4-1.2,1.1-2.3,1.9-3.2c0.9-1.1,1.6-2.3,2.1-3.6
	c0.4-1.2,1.1-2.3,1.9-3.3c0.5-0.5,0.9-1.1,1.2-1.7c0.2-0.4,0.5-0.9,0.7-1.3l1.8,1c-0.3,0.4-0.6,0.8-0.8,1.3
	c-0.4,0.6-0.6,1.2-0.9,1.9c-0.4,1.2-1,2.3-1.9,3.2c-0.9,1.1-1.6,2.3-2.1,3.6c-0.2,0.6-0.5,1.2-0.8,1.7c-0.3,0.5-0.7,1.1-1.1,1.5
	c-0.9,1.1-1.6,2.3-2.1,3.6c-0.2,0.6-0.5,1.2-0.8,1.7c-0.3,0.5-0.7,1.1-1.1,1.5c-0.9,1.1-1.6,2.3-2.1,3.6c-0.2,0.6-0.5,1.2-0.8,1.7
	c-0.3,0.6-0.7,1.1-1.1,1.5c-0.5,0.5-0.9,1.1-1.2,1.7c-0.3,0.4-0.5,0.8-0.7,1.3l-1.8-1C8.1,40,8.3,39.6,8.6,39.2z"/>
<path class="st0" d="M65.2,27L52,4.2c-1.4-2.4-4.5-3.3-7-1.9l-7.4,4.3c-2.4,1.4-3.3,4.5-1.9,7c0,0,0,0,0,0L49,36.4
	c1.4,2.4,4.5,3.3,7,1.9c0,0,0,0,0,0l7.4-4.3C65.8,32.5,66.6,29.4,65.2,27z M64.6,30.6c-0.3,1-0.9,1.9-1.8,2.4l-2,1.1
	c-0.3-0.4-0.5-0.7-0.8-1.1c-0.3-0.5-0.6-1.1-0.8-1.7c-0.5-1.3-1.2-2.5-2.1-3.6c-0.8-1-1.4-2.1-1.9-3.2c-0.5-1.3-1.2-2.5-2.1-3.6
	c-0.8-1-1.4-2.1-1.9-3.2c-0.5-1.3-1.2-2.5-2.1-3.6c-0.4-0.5-0.8-1-1.1-1.5c-0.3-0.5-0.6-1.1-0.8-1.7c-0.5-1.3-1.2-2.5-2.1-3.6
	c-0.4-0.5-0.8-1-1.1-1.5c-0.2-0.4-0.4-0.8-0.6-1.2l2-1.1C46.3,3,47,2.8,47.6,2.8c0.3,0,0.7,0,1,0.1c1,0.3,1.9,0.9,2.4,1.8l13.2,22.8
	C64.7,28.5,64.9,29.5,64.6,30.6L64.6,30.6z M55.3,37.2c-1.9,1.1-4.3,0.4-5.3-1.4L36.8,13c-1.1-1.9-0.4-4.3,1.4-5.3l2-1.2
	c0.3,0.4,0.6,0.8,0.8,1.2c0.3,0.5,0.6,1.1,0.8,1.7c0.2,0.7,0.5,1.3,0.9,1.9c0.3,0.6,0.8,1.2,1.2,1.7c0.8,1,1.4,2.1,1.9,3.2
	c0.5,1.3,1.2,2.5,2.1,3.6c0.8,1,1.4,2.1,1.9,3.2c0.5,1.3,1.2,2.5,2.1,3.6c0.8,1,1.4,2.1,1.9,3.2c0.5,1.3,1.2,2.5,2.1,3.6
	c0.4,0.5,0.8,1,1,1.6c0.2,0.4,0.4,0.8,0.6,1.2L55.3,37.2L55.3,37.2z M55.3,31.1c-0.3-0.5-0.6-1.1-0.7-1.7c-0.5-1.3-1.2-2.5-2.1-3.6
	c-0.8-1-1.4-2.1-1.9-3.2c-0.5-1.3-1.2-2.5-2.1-3.6c-0.8-1-1.4-2.1-1.9-3.2c-0.5-1.3-1.2-2.5-2.1-3.6c-0.4-0.5-0.8-1-1.1-1.5
	C43.2,10.2,43,9.6,42.8,9c-0.2-0.7-0.5-1.3-0.9-1.9c-0.2-0.4-0.5-0.8-0.8-1.2l1.8-1c0.2,0.4,0.4,0.9,0.7,1.3
	c0.3,0.6,0.7,1.2,1.1,1.7c0.8,1,1.5,2.1,1.9,3.2c0.5,1.3,1.2,2.5,2.1,3.6c0.8,1,1.5,2.1,1.9,3.2c0.5,1.3,1.2,2.5,2.1,3.6
	c0.8,1,1.4,2.1,1.9,3.2c0.5,1.3,1.2,2.5,2.1,3.6c0.8,1,1.4,2.1,1.9,3.2c0.2,0.7,0.5,1.3,0.9,1.9c0.2,0.4,0.5,0.8,0.8,1.2l-1.8,1
	c-0.2-0.4-0.4-0.9-0.7-1.3c-0.3-0.6-0.7-1.2-1.2-1.7C56,32.2,55.6,31.7,55.3,31.1L55.3,31.1z"/>
</svg>
